LMM Tutorial · Unfold.jl
…
(1, 1, 7050)
We can now run the LinearMixedModel on each time point

m,results = fit(UnfoldLinearMixedModel,f,evts,data_epochs,times)

(Unfold object
formula: 0 ~ 1 + condA + condB + condA & condB + (1 + condA + condB + condA & condB | subject)
Fields:	.modelinfo (potentially contains info on fitting procedure) 
	.beta extracted parameters 
	.X designmatrix (with fields .X.Xs, .X.events .X.formulas
, 488×7 DataFrame
 Row │ term           channel  basisname        colname_basis  estimate    std ⋯
     │ String         Int64    String           Float64        Float64     Uni ⋯
─────┼──────────────────────────────────────────────────────────────────────────
   1 │ (Intercept)          1  mass-univariate          -0.4   0.56058     0.1 ⋯
   2 │ (Intercept)          1  mass-univariate          -0.38  0.921113    0.1
   3 │ (Intercept)          1  mass-univariate          -0.36  1.31078     0.1
   4 │ (Intercept)          1  mass-univariate          -0.34  0.945159    0.1
   5 │ (Intercept)          1  mass-univariate          -0.32  1.09817     0.2 ⋯
   6 │ (Intercept)          1  mass-univariate          -0.3   1.18384     0.1
   7 │ (Intercept)          1  mass-univariate          -0.28  1.24103     0.2
   8 │ (Intercept)          1  mass-univariate          -0.26  0.976984    0.1
  ⋮  │       ⋮           ⋮            ⋮               ⋮            ⋮           ⋱
 482 │ condA & condB        1  mass-univariate           0.68  1.75596         ⋯
 483 │ condA & condB        1  mass-univariate           0.7   0.960062
 484 │ condA & condB        1  mass-univariate           0.72  0.347727
 485 │ condA & condB        1  mass-univariate           0.74  0.00914352
 486 │ condA & condB        1  mass-univariate           0.76  0.585476        ⋯
 487 │ condA & condB        1  mass-univariate           0.78  0.185163
 488 │ condA & condB        1  mass-univariate           0.8   0.831344
                                                  2 columns and 473 rows omitted)
…
