(to be overhauled) Mass Univariate Mixed Model · Unfold.jl
…
m,results = fit(UnfoldLinearMixedModel,f,evts,data_epochs,times)

(Unfold object
formula: 0 ~ 1 + condA + condB + condA & condB + MixedModels.ZeroCorr((1 + condA + condB + condA & condB | subject))
Fields:	.modelinfo (potentially contains info on fitting procedure) 
	.beta extracted parameters 
	.X designmatrix (with fields .X.Xs, .X.events .X.formulas
, 488×7 DataFrame
 Row │ term           channel  basisname        colname_basis  estimate  stder ⋯
     │ String         Int64    String           Float64        Float64   Union ⋯
─────┼──────────────────────────────────────────────────────────────────────────
   1 │ (Intercept)          1  mass-univariate          -0.4   0.563032  0.121 ⋯
   2 │ (Intercept)          1  mass-univariate          -0.38  0.908834  0.177
   3 │ (Intercept)          1  mass-univariate          -0.36  1.30949   0.175
   4 │ (Intercept)          1  mass-univariate          -0.34  0.93909   0.176
   5 │ (Intercept)          1  mass-univariate          -0.32  1.09222   0.179 ⋯
   6 │ (Intercept)          1  mass-univariate          -0.3   1.19311   0.182
   7 │ (Intercept)          1  mass-univariate          -0.28  1.2585    0.183
   8 │ (Intercept)          1  mass-univariate          -0.26  0.959314  0.179
  ⋮  │       ⋮           ⋮            ⋮               ⋮           ⋮         ⋮  ⋱
 482 │ condA & condB        1  mass-univariate           0.68  0.0             ⋯
 483 │ condA & condB        1  mass-univariate           0.7   0.587542
 484 │ condA & condB        1  mass-univariate           0.72  0.0
 485 │ condA & condB        1  mass-univariate           0.74  0.0
 486 │ condA & condB        1  mass-univariate           0.76  0.0             ⋯
 487 │ condA & condB        1  mass-univariate           0.78  0.0
 488 │ condA & condB        1  mass-univariate           0.8   0.0
                                                  2 columns and 473 rows omitted)
…
